<?xml version="1.0" encoding="UTF-8"?>
<svg xmlns="http://www.w3.org/2000/svg" xmlns:xlink="http://www.w3.org/1999/xlink" width="30pt" height="45pt" viewBox="0 0 30 45" version="1.1">
<g id="surface1">
<path style=" stroke:none;fill-rule:nonzero;fill:rgb(11.372549%,19.607843%,34.901961%);fill-opacity:1;" d="M 15 44.957031 L 4.277344 27.964844 L 15 17.390625 L 25.722656 27.964844 Z M 15 44.957031 "/>
<path style=" stroke:none;fill-rule:nonzero;fill:rgb(11.372549%,19.607843%,34.901961%);fill-opacity:1;" d="M 4.136719 0.0390625 L 25.863281 0.0390625 C 28.148438 0.0390625 30 1.863281 30 4.117188 L 30 27.097656 C 30 29.347656 28.148438 31.175781 25.863281 31.175781 L 4.136719 31.175781 C 1.851562 31.175781 0 29.347656 0 27.097656 L 0 4.117188 C 0 1.863281 1.851562 0.0390625 4.136719 0.0390625 Z M 4.136719 0.0390625 "/>
<path style=" stroke:none;fill-rule:nonzero;fill:rgb(100%,100%,100%);fill-opacity:1;" d="M 17.179688 6.402344 C 18.269531 6.84375 18.269531 6.84375 18.550781 6.84375 C 18.8125 6.835938 19.058594 6.703125 19.203125 6.488281 C 19.34375 6.320312 19.429688 6.265625 19.566406 6.265625 C 19.816406 6.265625 19.890625 6.402344 19.890625 6.84375 C 19.863281 8.144531 19.972656 9.449219 20.21875 10.730469 C 20.25 10.894531 20.265625 11.058594 20.273438 11.222656 C 20.273438 11.585938 20.105469 11.804688 19.855469 11.804688 C 19.605469 11.804688 19.488281 11.664062 19.324219 11.253906 C 18.890625 10.238281 18.296875 9.296875 17.558594 8.46875 C 16.761719 7.605469 15.644531 7.089844 14.457031 7.035156 C 12.808594 7.035156 11.691406 8.191406 11.691406 9.957031 C 11.625 10.945312 12.105469 11.894531 12.949219 12.4375 C 13.648438 12.933594 14.207031 13.152344 15.996094 13.652344 C 17.789062 14.148438 18.902344 14.640625 19.714844 15.257812 C 20.847656 16.164062 21.488281 17.53125 21.457031 18.96875 C 21.457031 22.355469 18.464844 24.976562 14.609375 24.976562 C 13.121094 24.910156 11.648438 24.671875 10.21875 24.257812 C 9.4375 24.011719 9.070312 23.617188 8.914062 22.972656 C 8.660156 21.792969 8.535156 20.589844 8.542969 19.382812 C 8.542969 18.5 8.738281 18.097656 9.15625 18.097656 C 9.523438 18.097656 9.578125 18.152344 10.054688 19.53125 C 10.339844 20.421875 10.828125 21.242188 11.476562 21.929688 C 12.472656 22.960938 13.835938 23.574219 15.28125 23.632812 C 16.089844 23.652344 16.875 23.347656 17.457031 22.789062 C 18.035156 22.226562 18.359375 21.460938 18.355469 20.660156 C 18.355469 19.789062 17.980469 18.957031 17.320312 18.371094 C 16.789062 17.972656 16.175781 17.71875 14.804688 17.261719 C 12.429688 16.542969 11.414062 16.074219 10.527344 15.25 C 9.492188 14.339844 8.960938 13 8.960938 11.417969 C 8.960938 8.332031 11.535156 5.878906 14.773438 5.878906 C 15.609375 5.867188 16.429688 6.046875 17.179688 6.402344 "/>
</g>
</svg>
